%!PS-Adobe-2.0
%%Title: isdn_customer_worksheet.ps
%%Creator: fig2dev Version 3.2 Patchlevel 1
%%CreationDate: Tue Sep  7 10:48:31 1999
%%For: gregm@coco (Gregory McLean)
%%Orientation: Portrait
%%BoundingBox: 34 23 578 769
%%Pages: 1
%%BeginSetup
%%IncludeFeature: *PageSize Letter
%%EndSetup
%%Magnification: 1.0000
%%EndComments
/$F2psDict 200 dict def
$F2psDict begin
$F2psDict /mtrx matrix put
/col-1 {0 setgray} bind def
/col0 {0.000 0.000 0.000 srgb} bind def
/col1 {0.000 0.000 1.000 srgb} bind def
/col2 {0.000 1.000 0.000 srgb} bind def
/col3 {0.000 1.000 1.000 srgb} bind def
/col4 {1.000 0.000 0.000 srgb} bind def
/col5 {1.000 0.000 1.000 srgb} bind def
/col6 {1.000 1.000 0.000 srgb} bind def
/col7 {1.000 1.000 1.000 srgb} bind def
/col8 {0.000 0.000 0.560 srgb} bind def
/col9 {0.000 0.000 0.690 srgb} bind def
/col10 {0.000 0.000 0.820 srgb} bind def
/col11 {0.530 0.810 1.000 srgb} bind def
/col12 {0.000 0.560 0.000 srgb} bind def
/col13 {0.000 0.690 0.000 srgb} bind def
/col14 {0.000 0.820 0.000 srgb} bind def
/col15 {0.000 0.560 0.560 srgb} bind def
/col16 {0.000 0.690 0.690 srgb} bind def
/col17 {0.000 0.820 0.820 srgb} bind def
/col18 {0.560 0.000 0.000 srgb} bind def
/col19 {0.690 0.000 0.000 srgb} bind def
/col20 {0.820 0.000 0.000 srgb} bind def
/col21 {0.560 0.000 0.560 srgb} bind def
/col22 {0.690 0.000 0.690 srgb} bind def
/col23 {0.820 0.000 0.820 srgb} bind def
/col24 {0.500 0.190 0.000 srgb} bind def
/col25 {0.630 0.250 0.000 srgb} bind def
/col26 {0.750 0.380 0.000 srgb} bind def
/col27 {1.000 0.500 0.500 srgb} bind def
/col28 {1.000 0.630 0.630 srgb} bind def
/col29 {1.000 0.750 0.750 srgb} bind def
/col30 {1.000 0.880 0.880 srgb} bind def
/col31 {1.000 0.840 0.000 srgb} bind def

end
save
0.0 812.0 translate
1 -1 scale

/cp {closepath} bind def
/ef {eofill} bind def
/gr {grestore} bind def
/gs {gsave} bind def
/sa {save} bind def
/rs {restore} bind def
/l {lineto} bind def
/m {moveto} bind def
/rm {rmoveto} bind def
/n {newpath} bind def
/s {stroke} bind def
/sh {show} bind def
/slc {setlinecap} bind def
/slj {setlinejoin} bind def
/slw {setlinewidth} bind def
/srgb {setrgbcolor} bind def
/rot {rotate} bind def
/sc {scale} bind def
/sd {setdash} bind def
/ff {findfont} bind def
/sf {setfont} bind def
/scf {scalefont} bind def
/sw {stringwidth} bind def
/tr {translate} bind def
/tnt {dup dup currentrgbcolor
  4 -2 roll dup 1 exch sub 3 -1 roll mul add
  4 -2 roll dup 1 exch sub 3 -1 roll mul add
  4 -2 roll dup 1 exch sub 3 -1 roll mul add srgb}
  bind def
/shd {dup dup currentrgbcolor 4 -2 roll mul 4 -2 roll mul
  4 -2 roll mul srgb} bind def
/reencdict 12 dict def /ReEncode { reencdict begin
/newcodesandnames exch def /newfontname exch def /basefontname exch def
/basefontdict basefontname findfont def /newfont basefontdict maxlength dict def
basefontdict { exch dup /FID ne { dup /Encoding eq
{ exch dup length array copy newfont 3 1 roll put }
{ exch newfont 3 1 roll put } ifelse } { pop pop } ifelse } forall
newfont /FontName newfontname put newcodesandnames aload pop
128 1 255 { newfont /Encoding get exch /.notdef put } for
newcodesandnames length 2 idiv { newfont /Encoding get 3 1 roll put } repeat
newfontname newfont definefont pop end } def
/isovec [
8#200 /grave 8#201 /acute 8#202 /circumflex 8#203 /tilde
8#204 /macron 8#205 /breve 8#206 /dotaccent 8#207 /dieresis
8#210 /ring 8#211 /cedilla 8#212 /hungarumlaut 8#213 /ogonek 8#214 /caron
8#220 /dotlessi 8#230 /oe 8#231 /OE
8#240 /space 8#241 /exclamdown 8#242 /cent 8#243 /sterling
8#244 /currency 8#245 /yen 8#246 /brokenbar 8#247 /section 8#250 /dieresis
8#251 /copyright 8#252 /ordfeminine 8#253 /guillemotleft 8#254 /logicalnot
8#255 /endash 8#256 /registered 8#257 /macron 8#260 /degree 8#261 /plusminus
8#262 /twosuperior 8#263 /threesuperior 8#264 /acute 8#265 /mu 8#266 /paragraph
8#267 /periodcentered 8#270 /cedilla 8#271 /onesuperior 8#272 /ordmasculine
8#273 /guillemotright 8#274 /onequarter 8#275 /onehalf
8#276 /threequarters 8#277 /questiondown 8#300 /Agrave 8#301 /Aacute
8#302 /Acircumflex 8#303 /Atilde 8#304 /Adieresis 8#305 /Aring
8#306 /AE 8#307 /Ccedilla 8#310 /Egrave 8#311 /Eacute
8#312 /Ecircumflex 8#313 /Edieresis 8#314 /Igrave 8#315 /Iacute
8#316 /Icircumflex 8#317 /Idieresis 8#320 /Eth 8#321 /Ntilde 8#322 /Ograve
8#323 /Oacute 8#324 /Ocircumflex 8#325 /Otilde 8#326 /Odieresis 8#327 /multiply
8#330 /Oslash 8#331 /Ugrave 8#332 /Uacute 8#333 /Ucircumflex
8#334 /Udieresis 8#335 /Yacute 8#336 /Thorn 8#337 /germandbls 8#340 /agrave
8#341 /aacute 8#342 /acircumflex 8#343 /atilde 8#344 /adieresis 8#345 /aring
8#346 /ae 8#347 /ccedilla 8#350 /egrave 8#351 /eacute
8#352 /ecircumflex 8#353 /edieresis 8#354 /igrave 8#355 /iacute
8#356 /icircumflex 8#357 /idieresis 8#360 /eth 8#361 /ntilde 8#362 /ograve
8#363 /oacute 8#364 /ocircumflex 8#365 /otilde 8#366 /odieresis 8#367 /divide
8#370 /oslash 8#371 /ugrave 8#372 /uacute 8#373 /ucircumflex
8#374 /udieresis 8#375 /yacute 8#376 /thorn 8#377 /ydieresis] def
/Helvetica-Bold /Helvetica-Bold-iso isovec ReEncode
/Helvetica /Helvetica-iso isovec ReEncode
/$F2psBegin {$F2psDict begin /$F2psEnteredState save def} def
/$F2psEnd {$F2psEnteredState restore end} def
%%EndProlog

$F2psBegin
10 setmiterlimit
n -1000 14147 m -1000 -1000 l 10622 -1000 l 10622 14147 l cp clip
 0.06000 0.06000 sc
%%Page: 1 1
/Helvetica-iso ff 180.00 scf sf
900 12000 m
gs 1 -1 sc (The first and last IP address of your range are unusable. The first one is the 'network' address and ) col0 sh gr
/Helvetica-iso ff 180.00 scf sf
900 12225 m
gs 1 -1 sc (last one is the 'broadcast' address) col0 sh gr
% Polyline
15.000 slw
n 705 11550 m 600 11550 600 13020 105 arcto 4 {pop} repeat
  600 13125 9495 13125 105 arcto 4 {pop} repeat
  9600 13125 9600 11655 105 arcto 4 {pop} repeat
  9600 11550 705 11550 105 arcto 4 {pop} repeat
 cp gs col0 s gr 
/Helvetica-Bold-iso ff 180.00 scf sf
750 11775 m
gs 1 -1 sc (Notes:) col0 sh gr
/Helvetica-iso ff 180.00 scf sf
900 12525 m
gs 1 -1 sc (The SMTP server can only be utilized when connected to ComStar's network.) col0 sh gr
/Helvetica-iso ff 180.00 scf sf
900 12750 m
gs 1 -1 sc (Any non connectivity related issues should be directed to the support email address.) col0 sh gr
/Helvetica-iso ff 180.00 scf sf
900 12975 m
gs 1 -1 sc (Usernames and passwords are case sensitive) col0 sh gr
% Polyline
30.000 slw
n 900 1575 m 9300 1575 l gs col0 s gr 
% Polyline
7.500 slw
n 2400 2400 m 6000 2400 l gs col0 s gr 
% Polyline
n 746 3300 m 754 3300 l gs col0 s gr
% Polyline
15.000 slw
n 600 3375 m 9600 3375 l gs col0 s gr 
% Polyline
7.500 slw
n 600 3000 m 9600 3000 l 9600 4500 l 600 4500 l cp gs col0 s gr 
% Polyline
n 4950 3000 m 4950 4500 l gs col0 s gr 
% Polyline
n 4950 4500 m 4950 6000 l gs col0 s gr 
% Polyline
n 600 4500 m 9600 4500 l 9600 6000 l 600 6000 l cp gs col0 s gr 
% Polyline
15.000 slw
n 600 4875 m 9600 4875 l gs col0 s gr 
% Polyline
n 600 6375 m 9600 6375 l gs col0 s gr 
% Polyline
7.500 slw
n 4946 6000 m 4954 6000 l gs col0 s gr
% Polyline
n 4950 6000 m 4950 7350 l gs col0 s gr 
% Polyline
n 600 6000 m 9600 6000 l 9600 7350 l 600 7350 l cp gs col0 s gr 
% Polyline
15.000 slw
n 600 7800 m 9600 7800 l gs col0 s gr 
% Polyline
7.500 slw
n 600 7350 m 9600 7350 l 9600 9450 l 600 9450 l cp gs col0 s gr 
% Polyline
n 2100 3750 m 4500 3750 l gs col0 s gr 
% Polyline
n 2100 4050 m 4500 4050 l gs col0 s gr 
% Polyline
n 2100 4350 m 4500 4350 l gs col0 s gr 
% Polyline
n 6600 3750 m 9300 3750 l gs col0 s gr 
% Polyline
n 2400 5400 m 4500 5400 l gs col0 s gr 
% Polyline
n 2400 5175 m 4500 5175 l gs col0 s gr 
% Polyline
n 2400 5625 m 4500 5625 l gs col0 s gr 
% Polyline
n 2400 5850 m 4500 5850 l gs col0 s gr 
% Polyline
n 2100 6750 m 4500 6750 l gs col0 s gr 
% Polyline
n 2100 7200 m 4500 7200 l gs col0 s gr 
% Polyline
n 2100 6975 m 4500 6975 l gs col0 s gr 
% Polyline
n 6600 6750 m 9300 6750 l gs col0 s gr 
% Polyline
n 6600 6975 m 9300 6975 l gs col0 s gr 
% Polyline
n 6600 7200 m 9300 7200 l gs col0 s gr 
% Polyline
n 6596 8550 m 6604 8550 l gs col0 s gr
% Polyline
n 6600 8100 m 9300 8100 l gs col0 s gr 
% Polyline
n 3000 9000 m 6300 9000 l gs col0 s gr 
% Polyline
n 6600 8550 m 9300 8550 l gs col0 s gr 
% Polyline
n 6600 8325 m 9300 8325 l gs col0 s gr 
% Polyline
n 6600 5550 m 9300 5550 l gs col0 s gr 
% Polyline
n 2400 8100 m 4800 8100 l gs col0 s gr 
% Polyline
n 2400 8550 m 4800 8550 l gs col0 s gr 
% Polyline
n 8025 1500 m 9300 1500 l gs col0 s gr 
% Polyline
n 2400 2100 m 6000 2100 l gs col0 s gr 
% Polyline
n 6600 5250 m 9300 5250 l gs col0 s gr 
% Polyline
n 2400 8325 m 4800 8325 l gs col0 s gr 
% Polyline
n 3000 9225 m 6300 9225 l gs col0 s gr 
/Helvetica-Bold-iso ff 300.00 scf sf
6600 975 m
gs 1 -1 sc (ISDN Worksheet) col0 sh gr
/Helvetica-Bold-iso ff 180.00 scf sf
1050 1200 m
gs 1 -1 sc (2812 Spring Road, Suite 200) col0 sh gr
/Helvetica-Bold-iso ff 270.00 scf sf
900 2100 m
gs 1 -1 sc (Customer ) col0 sh gr
/Helvetica-Bold-iso ff 270.00 scf sf
900 2400 m
gs 1 -1 sc (Contact) col0 sh gr
/Helvetica-Bold-iso ff 180.00 scf sf
7500 1500 m
gs 1 -1 sc (Date:) col0 sh gr
/Helvetica-Bold-iso ff 180.00 scf sf
975 3750 m
gs 1 -1 sc (Circuit ID) col0 sh gr
/Helvetica-Bold-iso ff 180.00 scf sf
975 4050 m
gs 1 -1 sc (SPID 1) col0 sh gr
/Helvetica-Bold-iso ff 180.00 scf sf
975 4350 m
gs 1 -1 sc (SPID 2) col0 sh gr
/Helvetica-Bold-iso ff 270.00 scf sf
750 3300 m
gs 1 -1 sc (Your Circuit Information) col0 sh gr
/Helvetica-Bold-iso ff 270.00 scf sf
5100 3300 m
gs 1 -1 sc (ComStar Circuit Information) col0 sh gr
/Helvetica-Bold-iso ff 270.00 scf sf
675 4800 m
gs 1 -1 sc (Your IP Information) col0 sh gr
/Helvetica-Bold-iso ff 270.00 scf sf
5100 4800 m
gs 1 -1 sc (ComStar IP Information) col0 sh gr
/Helvetica-Bold-iso ff 180.00 scf sf
5100 3750 m
gs 1 -1 sc (Dial Number) col0 sh gr
/Helvetica-Bold-iso ff 180.00 scf sf
900 5400 m
gs 1 -1 sc (IP Range Start) col0 sh gr
/Helvetica-Bold-iso ff 180.00 scf sf
1050 1425 m
gs 1 -1 sc (Atlanta, GA, 30339) col0 sh gr
/Helvetica-Bold-iso ff 180.00 scf sf
2850 1425 m
gs 1 -1 sc (1-800-4COMSTAR ) col0 sh gr
/Helvetica-Bold-iso ff 180.00 scf sf
5100 5250 m
gs 1 -1 sc (Router IP) col0 sh gr
/Helvetica-Bold-iso ff 270.00 scf sf
5100 6300 m
gs 1 -1 sc (ComStar Dial Back Information) col0 sh gr
/Helvetica-Bold-iso ff 270.00 scf sf
750 6300 m
gs 1 -1 sc (Your Account Information) col0 sh gr
/Helvetica-Bold-iso ff 180.00 scf sf
5100 6750 m
gs 1 -1 sc (Username) col0 sh gr
/Helvetica-Bold-iso ff 180.00 scf sf
5100 6975 m
gs 1 -1 sc (Password) col0 sh gr
/Helvetica-Bold-iso ff 180.00 scf sf
5100 7200 m
gs 1 -1 sc (Auth Type) col0 sh gr
/Helvetica-Bold-iso ff 180.00 scf sf
900 7200 m
gs 1 -1 sc (Auth Type) col0 sh gr
/Helvetica-Bold-iso ff 180.00 scf sf
900 6975 m
gs 1 -1 sc (Password) col0 sh gr
/Helvetica-Bold-iso ff 180.00 scf sf
900 6750 m
gs 1 -1 sc (Username) col0 sh gr
/Helvetica-Bold-iso ff 270.00 scf sf
750 7725 m
gs 1 -1 sc (Other Information) col0 sh gr
/Helvetica-Bold-iso ff 180.00 scf sf
900 9000 m
gs 1 -1 sc (Support Email Address) col0 sh gr
/Helvetica-Bold-iso ff 180.00 scf sf
900 9225 m
gs 1 -1 sc (Support Phone #) col0 sh gr
/Helvetica-Bold-iso ff 180.00 scf sf
5100 8100 m
gs 1 -1 sc (POP Server) col0 sh gr
/Helvetica-Bold-iso ff 180.00 scf sf
5100 8325 m
gs 1 -1 sc (SMTP Server) col0 sh gr
/Helvetica-Bold-iso ff 180.00 scf sf
5100 8550 m
gs 1 -1 sc (News Server) col0 sh gr
/Helvetica-Bold-iso ff 180.00 scf sf
900 5175 m
gs 1 -1 sc (Router IP) col0 sh gr
/Helvetica-Bold-iso ff 180.00 scf sf
900 5625 m
gs 1 -1 sc (IP Range End) col0 sh gr
/Helvetica-Bold-iso ff 180.00 scf sf
900 5850 m
gs 1 -1 sc (Netmask) col0 sh gr
/Helvetica-Bold-iso ff 180.00 scf sf
5100 5550 m
gs 1 -1 sc (Netmask) col0 sh gr
/Helvetica-Bold-iso ff 180.00 scf sf
900 8100 m
gs 1 -1 sc (DNS Server 1) col0 sh gr
/Helvetica-Bold-iso ff 180.00 scf sf
900 8325 m
gs 1 -1 sc (DNS Server 2) col0 sh gr
/Helvetica-Bold-iso ff 180.00 scf sf
900 8550 m
gs 1 -1 sc (Your Domain) col0 sh gr
/Helvetica-iso ff 180.00 scf sf
8100 1500 m
gs 1 -1 sc x-date col0 sh gr
/Helvetica-Bold-iso ff 300.00 scf sf
900 975 m
gs 1 -1 sc (comstar.net, inc.) col0 sh gr
/Helvetica-iso ff 180.00 scf sf
2700 2025 m
gs 1 -1 sc x-customer col0 sh gr
/Helvetica-iso ff 180.00 scf sf
2700 2325 m
gs 1 -1 sc x-contact col0 sh gr
/Helvetica-iso ff 180.00 scf sf
2250 3675 m
gs 1 -1 sc x-circuit-id col0 sh gr
/Helvetica-iso ff 180.00 scf sf
2250 3975 m
gs 1 -1 sc x-spid-1 col0 sh gr
/Helvetica-iso ff 180.00 scf sf
2250 4275 m
gs 1 -1 sc x-spid-2 col0 sh gr
/Helvetica-iso ff 180.00 scf sf
2550 5100 m
gs 1 -1 sc x-cust-router-ip col0 sh gr
/Helvetica-iso ff 180.00 scf sf
2550 5355 m
gs 1 -1 sc x-ip-range-start col0 sh gr
/Helvetica-iso ff 180.00 scf sf
2550 5595 m
gs 1 -1 sc x-ip-range-end col0 sh gr
/Helvetica-iso ff 180.00 scf sf
2550 5820 m
gs 1 -1 sc x-cust-netmask col0 sh gr
/Helvetica-iso ff 180.00 scf sf
2400 6705 m
gs 1 -1 sc x-cust-user col0 sh gr
/Helvetica-iso ff 180.00 scf sf
2400 6945 m
gs 1 -1 sc x-cust-pass col0 sh gr
/Helvetica-iso ff 180.00 scf sf
2400 7170 m
gs 1 -1 sc x-cust-auth col0 sh gr
/Helvetica-iso ff 180.00 scf sf
6900 3705 m
gs 1 -1 sc x-dial-number col0 sh gr
/Helvetica-iso ff 180.00 scf sf
6825 5220 m
gs 1 -1 sc x-comstar-router-ip col0 sh gr
/Helvetica-iso ff 180.00 scf sf
6825 5520 m
gs 1 -1 sc x-comstar-router-mask col0 sh gr
/Helvetica-iso ff 180.00 scf sf
6900 6705 m
gs 1 -1 sc x-comstar-user col0 sh gr
/Helvetica-iso ff 180.00 scf sf
6900 6930 m
gs 1 -1 sc x-comstar-pass col0 sh gr
/Helvetica-iso ff 180.00 scf sf
6900 7170 m
gs 1 -1 sc x-comstar-auth col0 sh gr
/Helvetica-iso ff 180.00 scf sf
6900 8055 m
gs 1 -1 sc x-pop-server col0 sh gr
/Helvetica-iso ff 180.00 scf sf
6900 8295 m
gs 1 -1 sc x-smtp-server col0 sh gr
/Helvetica-iso ff 180.00 scf sf
6900 8505 m
gs 1 -1 sc x-news-server col0 sh gr
/Helvetica-iso ff 180.00 scf sf
2550 8070 m
gs 1 -1 sc x-dns-1 col0 sh gr
/Helvetica-iso ff 180.00 scf sf
2550 8295 m
gs 1 -1 sc x-dns-2 col0 sh gr
/Helvetica-iso ff 180.00 scf sf
2550 8535 m
gs 1 -1 sc x-domain col0 sh gr
/Helvetica-iso ff 180.00 scf sf
3300 8970 m
gs 1 -1 sc x-support-email col0 sh gr
/Helvetica-iso ff 180.00 scf sf
3285 9180 m
gs 1 -1 sc x-support-phone col0 sh gr
$F2psEnd
rs
showpage
