%!PS-Adobe-2.0
%%Title: ptp-worksheet.ps
%%Creator: fig2dev Version 3.2 Patchlevel 0-beta3
%%CreationDate: Wed May 19 12:50:25 1999
%%For: gregm@coco.comstar.net (Gregory McLean)
%%Orientation: Portrait
%%BoundingBox: 48 69 564 722
%%Pages: 1
%%BeginSetup
%%IncludeFeature: *PageSize Letter
%%EndSetup
%%Magnification: 1.0000
%%EndComments
/$F2psDict 200 dict def
$F2psDict begin
$F2psDict /mtrx matrix put
/col-1 {0 setgray} bind def
/col0 {0.000 0.000 0.000 srgb} bind def
/col1 {0.000 0.000 1.000 srgb} bind def
/col2 {0.000 1.000 0.000 srgb} bind def
/col3 {0.000 1.000 1.000 srgb} bind def
/col4 {1.000 0.000 0.000 srgb} bind def
/col5 {1.000 0.000 1.000 srgb} bind def
/col6 {1.000 1.000 0.000 srgb} bind def
/col7 {1.000 1.000 1.000 srgb} bind def
/col8 {0.000 0.000 0.560 srgb} bind def
/col9 {0.000 0.000 0.690 srgb} bind def
/col10 {0.000 0.000 0.820 srgb} bind def
/col11 {0.530 0.810 1.000 srgb} bind def
/col12 {0.000 0.560 0.000 srgb} bind def
/col13 {0.000 0.690 0.000 srgb} bind def
/col14 {0.000 0.820 0.000 srgb} bind def
/col15 {0.000 0.560 0.560 srgb} bind def
/col16 {0.000 0.690 0.690 srgb} bind def
/col17 {0.000 0.820 0.820 srgb} bind def
/col18 {0.560 0.000 0.000 srgb} bind def
/col19 {0.690 0.000 0.000 srgb} bind def
/col20 {0.820 0.000 0.000 srgb} bind def
/col21 {0.560 0.000 0.560 srgb} bind def
/col22 {0.690 0.000 0.690 srgb} bind def
/col23 {0.820 0.000 0.820 srgb} bind def
/col24 {0.500 0.190 0.000 srgb} bind def
/col25 {0.630 0.250 0.000 srgb} bind def
/col26 {0.750 0.380 0.000 srgb} bind def
/col27 {1.000 0.500 0.500 srgb} bind def
/col28 {1.000 0.630 0.630 srgb} bind def
/col29 {1.000 0.750 0.750 srgb} bind def
/col30 {1.000 0.880 0.880 srgb} bind def
/col31 {1.000 0.840 0.000 srgb} bind def

end
save
-4.0 773.5 translate
1 -1 scale

/cp {closepath} bind def
/ef {eofill} bind def
/gr {grestore} bind def
/gs {gsave} bind def
/sa {save} bind def
/rs {restore} bind def
/l {lineto} bind def
/m {moveto} bind def
/rm {rmoveto} bind def
/n {newpath} bind def
/s {stroke} bind def
/sh {show} bind def
/slc {setlinecap} bind def
/slj {setlinejoin} bind def
/slw {setlinewidth} bind def
/srgb {setrgbcolor} bind def
/rot {rotate} bind def
/sc {scale} bind def
/sd {setdash} bind def
/ff {findfont} bind def
/sf {setfont} bind def
/scf {scalefont} bind def
/sw {stringwidth} bind def
/tr {translate} bind def
/tnt {dup dup currentrgbcolor
  4 -2 roll dup 1 exch sub 3 -1 roll mul add
  4 -2 roll dup 1 exch sub 3 -1 roll mul add
  4 -2 roll dup 1 exch sub 3 -1 roll mul add srgb}
  bind def
/shd {dup dup currentrgbcolor 4 -2 roll mul 4 -2 roll mul
  4 -2 roll mul srgb} bind def
/reencdict 12 dict def /ReEncode { reencdict begin
/newcodesandnames exch def /newfontname exch def /basefontname exch def
/basefontdict basefontname findfont def /newfont basefontdict maxlength dict def
basefontdict { exch dup /FID ne { dup /Encoding eq
{ exch dup length array copy newfont 3 1 roll put }
{ exch newfont 3 1 roll put } ifelse } { pop pop } ifelse } forall
newfont /FontName newfontname put newcodesandnames aload pop
128 1 255 { newfont /Encoding get exch /.notdef put } for
newcodesandnames length 2 idiv { newfont /Encoding get 3 1 roll put } repeat
newfontname newfont definefont pop end } def
/isovec [
8#200 /grave 8#201 /acute 8#202 /circumflex 8#203 /tilde
8#204 /macron 8#205 /breve 8#206 /dotaccent 8#207 /dieresis
8#210 /ring 8#211 /cedilla 8#212 /hungarumlaut 8#213 /ogonek 8#214 /caron
8#220 /dotlessi 8#230 /oe 8#231 /OE
8#240 /space 8#241 /exclamdown 8#242 /cent 8#243 /sterling
8#244 /currency 8#245 /yen 8#246 /brokenbar 8#247 /section 8#250 /dieresis
8#251 /copyright 8#252 /ordfeminine 8#253 /guillemotleft 8#254 /logicalnot
8#255 /endash 8#256 /registered 8#257 /macron 8#260 /degree 8#261 /plusminus
8#262 /twosuperior 8#263 /threesuperior 8#264 /acute 8#265 /mu 8#266 /paragraph
8#267 /periodcentered 8#270 /cedilla 8#271 /onesuperior 8#272 /ordmasculine
8#273 /guillemotright 8#274 /onequarter 8#275 /onehalf
8#276 /threequarters 8#277 /questiondown 8#300 /Agrave 8#301 /Aacute
8#302 /Acircumflex 8#303 /Atilde 8#304 /Adieresis 8#305 /Aring
8#306 /AE 8#307 /Ccedilla 8#310 /Egrave 8#311 /Eacute
8#312 /Ecircumflex 8#313 /Edieresis 8#314 /Igrave 8#315 /Iacute
8#316 /Icircumflex 8#317 /Idieresis 8#320 /Eth 8#321 /Ntilde 8#322 /Ograve
8#323 /Oacute 8#324 /Ocircumflex 8#325 /Otilde 8#326 /Odieresis 8#327 /multiply
8#330 /Oslash 8#331 /Ugrave 8#332 /Uacute 8#333 /Ucircumflex
8#334 /Udieresis 8#335 /Yacute 8#336 /Thorn 8#337 /germandbls 8#340 /agrave
8#341 /aacute 8#342 /acircumflex 8#343 /atilde 8#344 /adieresis 8#345 /aring
8#346 /ae 8#347 /ccedilla 8#350 /egrave 8#351 /eacute
8#352 /ecircumflex 8#353 /edieresis 8#354 /igrave 8#355 /iacute
8#356 /icircumflex 8#357 /idieresis 8#360 /eth 8#361 /ntilde 8#362 /ograve
8#363 /oacute 8#364 /ocircumflex 8#365 /otilde 8#366 /odieresis 8#367 /divide
8#370 /oslash 8#371 /ugrave 8#372 /uacute 8#373 /ucircumflex
8#374 /udieresis 8#375 /yacute 8#376 /thorn 8#377 /ydieresis] def
/Times-Roman /Times-Roman-iso isovec ReEncode
/Times-Bold /Times-Bold-iso isovec ReEncode
/Courier /Courier-iso isovec ReEncode
/$F2psBegin {$F2psDict begin /$F2psEnteredState save def} def
/$F2psEnd {$F2psEnteredState restore end} def
%%EndProlog

$F2psBegin
10 setmiterlimit
n -1000 12722 m -1000 -1000 l 10462 -1000 l 10462 12722 l cp clip
 0.06000 0.06000 sc
%%Page: 1 1
% Polyline
7.500 slw
n 6600 4500 m 9000 4500 l gs col0 s gr 
% Polyline
n 6600 4800 m 9000 4800 l gs col0 s gr 
/Courier-iso ff 180.00 scf sf
5250 4800 m
gs 1 -1 sc (Circuit ID:) col0 sh gr
/Courier-iso ff 180.00 scf sf
5250 4500 m
gs 1 -1 sc (Carrier) col0 sh gr
% Polyline
n 2400 3600 m 4800 3600 l gs col0 s gr 
% Polyline
n 2400 3900 m 4800 3900 l gs col0 s gr 
/Courier-iso ff 180.00 scf sf
1050 3900 m
gs 1 -1 sc (Circuit ID:) col0 sh gr
/Courier-iso ff 180.00 scf sf
1050 3600 m
gs 1 -1 sc (Carrier) col0 sh gr
% Polyline
n 2400 4500 m 4800 4500 l gs col0 s gr 
% Polyline
n 2400 4800 m 4800 4800 l gs col0 s gr 
/Courier-iso ff 180.00 scf sf
1050 4800 m
gs 1 -1 sc (Circuit ID:) col0 sh gr
/Courier-iso ff 180.00 scf sf
1050 4500 m
gs 1 -1 sc (Carrier) col0 sh gr
% Polyline
n 1200 10350 m 4800 10350 l gs col0 s gr 
% Polyline
n 1196 10725 m 1204 10725 l gs col0 s gr
% Polyline
n 1200 10650 m 4800 10650 l gs col0 s gr 
% Polyline
n 1196 11025 m 1204 11025 l gs col0 s gr
% Polyline
n 1200 10950 m 4800 10950 l gs col0 s gr 
% Polyline
n 1200 11250 m 4800 11250 l gs col0 s gr 
% Polyline
n 5400 10350 m 9000 10350 l gs col0 s gr 
% Polyline
n 5396 10725 m 5404 10725 l gs col0 s gr
% Polyline
n 5400 10650 m 9000 10650 l gs col0 s gr 
% Polyline
n 5396 11025 m 5404 11025 l gs col0 s gr
% Polyline
n 5400 10950 m 9000 10950 l gs col0 s gr 
% Polyline
n 5400 11250 m 9000 11250 l gs col0 s gr 
% Polyline
n 5171 2775 m 5179 2775 l gs col0 s gr
% Polyline
n 5171 2775 m 5179 2775 l gs col0 s gr
% Polyline
n 1800 2400 m 4500 2400 l gs col0 s gr 
% Polyline
n 5400 2400 m 7200 2400 l gs col0 s gr 
% Polyline
n 7950 2400 m 9450 2400 l gs col0 s gr 
% Polyline
n 2250 2700 m 6000 2700 l gs col0 s gr 
% Polyline
n 900 3000 m 9300 3000 l 9300 11700 l 900 11700 l cp gs col0 s gr 
% Polyline
15.000 slw
n 900 3300 m 9300 3300 l gs col0 s gr 
% Polyline
n 5100 3300 m 5100 11700 l gs col0 s gr 
% Polyline
7.500 slw
n 6600 3900 m 9000 3900 l gs col0 s gr 
% Polyline
n 6600 3600 m 9000 3600 l gs col0 s gr 
% Polyline
15.000 slw
n 5100 9825 m 9300 9825 l gs col0 s gr 
% Polyline
n 5100 9825 m 900 9825 l gs col0 s gr 
% Polyline
7.500 slw
n 6596 5850 m 6604 5850 l gs col0 s gr
% Polyline
n 6600 5850 m 9000 5850 l gs col0 s gr 
% Polyline
n 6600 6150 m 9000 6150 l gs col0 s gr 
% Polyline
n 6600 6450 m 9000 6450 l gs col0 s gr 
% Polyline
n 6600 6750 m 9000 6750 l gs col0 s gr 
% Polyline
n 6600 7050 m 9000 7050 l gs col0 s gr 
% Polyline
n 6600 7350 m 9000 7350 l gs col0 s gr 
% Polyline
n 6600 7650 m 9000 7650 l gs col0 s gr 
% Polyline
n 5096 5100 m 5104 5100 l gs col0 s gr
% Polyline
n 5100 5100 m 9300 5100 l gs col0 s gr 
% Polyline
n 5100 4200 m 9300 4200 l gs col0 s gr 
% Polyline
n 5100 4200 m 900 4200 l gs col0 s gr 
% Polyline
n 5100 5100 m 900 5100 l gs col0 s gr 
% Polyline
n 2400 6750 m 4800 6750 l gs col0 s gr 
% Polyline
n 2400 7050 m 4800 7050 l gs col0 s gr 
% Polyline
n 2396 7350 m 2404 7350 l gs col0 s gr
% Polyline
n 2400 7350 m 4800 7350 l gs col0 s gr 
% Polyline
n 2400 7650 m 4800 7650 l gs col0 s gr 
% Polyline
n 1800 2100 m 4500 2100 l gs col0 s gr 
% Polyline
15.000 slw
n 900 10050 m 1500 10050 l gs col0 s gr 
% Polyline
n 5100 10050 m 5700 10050 l gs col0 s gr 
/Times-Roman-iso ff 360.00 scf sf
900 1125 m
gs 1 -1 sc (Comstar Communications Corp.) col0 sh gr
/Times-Roman-iso ff 360.00 scf sf
900 1500 m
gs 1 -1 sc (PTP Engineering Worksheet) col0 sh gr
/Times-Roman-iso ff 180.00 scf sf
900 2700 m
gs 1 -1 sc (Service Ordered:) col0 sh gr
/Times-Roman-iso ff 180.00 scf sf
900 2400 m
gs 1 -1 sc (Contact) col0 sh gr
/Times-Roman-iso ff 180.00 scf sf
900 2100 m
gs 1 -1 sc (Customer:) col0 sh gr
/Times-Roman-iso ff 180.00 scf sf
4800 2400 m
gs 1 -1 sc (Phone:) col0 sh gr
/Times-Roman-iso ff 180.00 scf sf
7500 2400 m
gs 1 -1 sc (Fax:) col0 sh gr
/Times-Bold-iso ff 180.00 scf sf
975 3225 m
gs 1 -1 sc (Customer Circuit) col0 sh gr
/Courier-iso ff 180.00 scf sf
5250 3600 m
gs 1 -1 sc (Carrier) col0 sh gr
/Courier-iso ff 180.00 scf sf
5250 3900 m
gs 1 -1 sc (Circuit ID:) col0 sh gr
/Times-Bold-iso ff 180.00 scf sf
5175 3225 m
gs 1 -1 sc (ComStar Circuit) col0 sh gr
/Times-Bold-iso ff 180.00 scf sf
5175 10050 m
gs 1 -1 sc (Notes:) col0 sh gr
/Times-Bold-iso ff 180.00 scf sf
975 10050 m
gs 1 -1 sc (Notes:) col0 sh gr
/Courier-iso ff 180.00 scf sf
5325 7650 m
gs 1 -1 sc (Link IP) col0 sh gr
/Courier-iso ff 180.00 scf sf
5325 7350 m
gs 1 -1 sc (Port ID) col0 sh gr
/Courier-iso ff 180.00 scf sf
5325 7050 m
gs 1 -1 sc (Router) col0 sh gr
/Courier-iso ff 180.00 scf sf
5325 6750 m
gs 1 -1 sc (CSU) col0 sh gr
/Courier-iso ff 180.00 scf sf
5325 6150 m
gs 1 -1 sc (Encoding) col0 sh gr
/Courier-iso ff 180.00 scf sf
5325 6450 m
gs 1 -1 sc (Channels) col0 sh gr
/Courier-iso ff 180.00 scf sf
5325 5850 m
gs 1 -1 sc (Framing) col0 sh gr
/Courier-iso ff 180.00 scf sf
1125 7650 m
gs 1 -1 sc (Link IP) col0 sh gr
/Courier-iso ff 180.00 scf sf
1125 7350 m
gs 1 -1 sc (Alloc IP) col0 sh gr
/Courier-iso ff 180.00 scf sf
1125 7050 m
gs 1 -1 sc (ASN) col0 sh gr
/Courier-iso ff 180.00 scf sf
1125 6750 m
gs 1 -1 sc (Routing) col0 sh gr
/Courier-iso ff 180.00 scf sf
1950 2100 m
gs 1 -1 sc x-customer col0 sh gr
/Courier-iso ff 180.00 scf sf
1950 2400 m
gs 1 -1 sc x-contact col0 sh gr
/Courier-iso ff 180.00 scf sf
5625 2400 m
gs 1 -1 sc x-phone col0 sh gr
/Courier-iso ff 180.00 scf sf
8400 2400 m
gs 1 -1 sc x-fax col0 sh gr
/Courier-iso ff 180.00 scf sf
2475 2700 m
gs 1 -1 sc x-service-ordered col0 sh gr
/Courier-iso ff 180.00 scf sf
2550 3600 m
gs 1 -1 sc x-carrier-1 col0 sh gr
/Courier-iso ff 180.00 scf sf
2550 3900 m
gs 1 -1 sc x-circuit-1 col0 sh gr
/Courier-iso ff 180.00 scf sf
2550 4500 m
gs 1 -1 sc x-carrier-2 col0 sh gr
/Courier-iso ff 180.00 scf sf
2550 4800 m
gs 1 -1 sc x-circuit-2 col0 sh gr
/Courier-iso ff 180.00 scf sf
6900 3600 m
gs 1 -1 sc x-carrier-3 col0 sh gr
/Courier-iso ff 180.00 scf sf
6900 3900 m
gs 1 -1 sc x-circuit-3 col0 sh gr
/Courier-iso ff 180.00 scf sf
6900 4500 m
gs 1 -1 sc x-carrier-4 col0 sh gr
/Courier-iso ff 180.00 scf sf
6900 4800 m
gs 1 -1 sc x-circuit-4 col0 sh gr
/Courier-iso ff 180.00 scf sf
2550 6750 m
gs 1 -1 sc x-routing col0 sh gr
/Courier-iso ff 180.00 scf sf
2550 7050 m
gs 1 -1 sc x-asn col0 sh gr
/Courier-iso ff 180.00 scf sf
2550 7350 m
gs 1 -1 sc x-alloc-ip col0 sh gr
/Courier-iso ff 180.00 scf sf
2550 7650 m
gs 1 -1 sc x-cust-link-ip col0 sh gr
/Courier-iso ff 180.00 scf sf
6900 5850 m
gs 1 -1 sc x-framing col0 sh gr
/Courier-iso ff 180.00 scf sf
6900 6150 m
gs 1 -1 sc x-encoding col0 sh gr
/Courier-iso ff 180.00 scf sf
6900 6450 m
gs 1 -1 sc x-channels col0 sh gr
/Courier-iso ff 180.00 scf sf
6900 6750 m
gs 1 -1 sc x-csu col0 sh gr
/Courier-iso ff 180.00 scf sf
6900 7050 m
gs 1 -1 sc x-router col0 sh gr
/Courier-iso ff 180.00 scf sf
6900 7350 m
gs 1 -1 sc x-port-id col0 sh gr
/Courier-iso ff 180.00 scf sf
6900 7650 m
gs 1 -1 sc x-comstar-link-ip col0 sh gr
$F2psEnd
rs
showpage
